Actividad_7_Equipo06_ Analisis_Exploratorio_de_Datos
…
##                       zona
## 1         centro occidente
## 18060           centro sur
## 70296      golfo de mexico
## 75441              noreste
## 83982             noroeste
## 90034                norte
## 96242         pacifico sur
## 98865 peninsula de yucatan

#Cantidad de ventas por estado #WSJIJDI4JFI4JFIJG5JGI5IGJ5IGJI5JGI5JGI5JGI5JGI5JGIJ5IGJI5GI5GI

datos1 %>% mutate(unos=1)%>% group_by(estado)%>%summarise(Cantidad=sum(unos))

## # A tibble: 32 x 2
##    estado              Cantidad
##    <chr>                  <dbl>
##  1 aguascalientes          1006
##  2 baja california         2405
##  3 baja california sur      517
##  4 campeche                 585
##  5 cdmx                   26029
##  6 chiapas                 1126
##  7 chihuahua               1602
##  8 coahuila                2065
##  9 colima                   620
## 10 durango                  430
## # ... with 22 more rows

#Cantidad de ventas por ciudad

datos1 %>% mutate(unos=1)%>% group_by(ciudad)%>%summarise(Cantidad=sum(unos))

## # A tibble: 220 x 2
##    ciudad              Cantidad
##    <chr>                  <dbl>
##  1 acambaro                  11
##  2 acapulco                 853
##  3 adolfo lopez mateos      167
##  4 agua dulce                19
##  5 aguascalientes          1006
##  6 allende                   28
##  7 apatzingan                51
##  8 apizaco                  136
##  9 apodaca                   27
## 10 arandas                  121
## # ... with 210 more rows
…
